…
    ## Joining, by = "id"

``` r
# Save for later
write_csv(longer, "./data/derived/longer.csv")

# Inspect
tibble(longer)
```

    ## # A tibble: 1,200 × 5
    ##       lon   lat  time aphiaid occurrenceStatus
    ##     <dbl> <dbl> <dbl>   <dbl>            <dbl>
    ##  1 -44.2  -24.3  6077  132098               NA
    ##  2 -24.6  -24.3  6077  132098               NA
    ##  3 -23.5  -24.3  6077  132098               NA
    ##  4  -5.74 -24.3  6077  132098               NA
    ##  5  -5.70 -24.3  6077  132098               NA
    ##  6  -5.27 -24.3  6077  132098               NA
    ##  7  -5.27 -24.3  6077  132098               NA
    ##  8   9.52 -24.3  6077  132098               NA
    ##  9   9.62 -24.3  6077  132098               NA
    ## 10  10.3  -24.3  6077  132098               NA
    ## # … with 1,190 more rows
…
